ST-558 Homework 9
…
Note, the variable Functioning Day also renamed func_day is dropped in the grouping. Also, rainfall and snowfall means were not calculated with the rest of the mean weather variables. Drop records on non-functioning days or days with no bike rentals.

bikes <- bike_data |>
    filter(func_day == "Yes") |>
    select(-func_day) |>
    group_by(date, season, holiday) |> 
    summarize(bike_count = sum(bike_count, na.rm = TRUE),
              rainfall   = sum(rainfall, na.rm = TRUE),
              snowfall   = sum(snowfall, na.rm = TRUE),
              across(c(temp, humidity, wind_speed, visibility, dew_point, solar_rad),
                     ~ mean(.x, na.rm = TRUE), .names = "{.col}"),
              .groups = "drop",) 
bikes

# A tibble: 353 × 12
   date       season holiday    bike_count rainfall snowfall    temp humidity
   <date>     <fct>  <fct>           <dbl>    <dbl>    <dbl>   <dbl>    <dbl>
 1 2017-12-01 Winter No Holiday       9539      0        0   -2.45       45.9
 2 2017-12-02 Winter No Holiday       8523      0        0    1.32       62.0
 3 2017-12-03 Winter No Holiday       7222      4        0    4.88       81.5
 4 2017-12-04 Winter No Holiday       8729      0.1      0   -0.304      52.5
 5 2017-12-05 Winter No Holiday       8307      0        0   -4.46       36.4
 6 2017-12-06 Winter No Holiday       6669      1.3      8.6  0.0458     70.8
 7 2017-12-07 Winter No Holiday       8549      0       10.4  1.09       67.5
 8 2017-12-08 Winter No Holiday       8032      0        0   -3.82       41.8
 9 2017-12-09 Winter No Holiday       7233      0        0   -0.846      46  
10 2017-12-10 Winter No Holiday       3453      4.1     32.5  1.19       69.7
# ℹ 343 more rows
# ℹ 4 more variables: wind_speed <dbl>, visibility <dbl>, dew_point <dbl>,
#   solar_rad <dbl>
…
lasso_grid |> collect_metrics() |>
    group_by(.config, .metric) |>
    summarize(mean = mean(mean, na.rm=TRUE), .groups = "drop") |>
    pivot_wider(names_from = .metric, values_from = "mean") |>
    arrange(rmse, mae)

# A tibble: 400 × 3
   .config             mae  rmse
   <chr>             <dbl> <dbl>
 1 pre0_mod001_post0 3245. 4105.
 2 pre0_mod002_post0 3245. 4105.
 3 pre0_mod003_post0 3245. 4105.
 4 pre0_mod004_post0 3245. 4105.
 5 pre0_mod005_post0 3245. 4105.
 6 pre0_mod006_post0 3245. 4105.
 7 pre0_mod007_post0 3245. 4105.
 8 pre0_mod008_post0 3245. 4105.
 9 pre0_mod009_post0 3245. 4105.
10 pre0_mod010_post0 3245. 4105.
# ℹ 390 more rows
…
tree_fits <- tree_workflow |>
    tune_grid(resamples = bike_10_fold,
              grid = tree_grid,
              metrics = metric_set(rmse, mae))

tree_fits |> collect_metrics() |>
    group_by(.config, .metric) |>
    summarize(mean = mean(mean, na.rm=TRUE), .groups = "drop") |>
    pivot_wider(names_from = .metric, values_from = "mean") |>
    arrange(rmse, mae)

# A tibble: 2,250 × 3
   .config              mae  rmse
   <chr>              <dbl> <dbl>
 1 pre0_mod1601_post0 2879. 3891.
 2 pre0_mod1604_post0 2879. 3891.
 3 pre0_mod1607_post0 2879. 3891.
 4 pre0_mod1610_post0 2879. 3891.
 5 pre0_mod1613_post0 2879. 3891.
 6 pre0_mod1616_post0 2879. 3891.
 7 pre0_mod1619_post0 2879. 3891.
 8 pre0_mod1646_post0 2874. 3892.
 9 pre0_mod1649_post0 2874. 3892.
10 pre0_mod1652_post0 2874. 3892.
# ℹ 2,240 more rows
…
bag_fit |> collect_metrics() |>
    group_by(.config, .metric) |>
    summarize(mean = mean(mean, na.rm=TRUE), .groups = "drop") |>
    pivot_wider(names_from = .metric, values_from = "mean") |>
    arrange(rmse, mae)

# A tibble: 225 × 3
   .config             mae  rmse
   <chr>             <dbl> <dbl>
 1 pre0_mod163_post0 2274. 2894.
 2 pre0_mod067_post0 2348. 2979.
 3 pre0_mod133_post0 2316. 2985.
 4 pre0_mod013_post0 2362. 3018.
 5 pre0_mod118_post0 2367. 3021.
 6 pre0_mod115_post0 2379. 3025.
 7 pre0_mod040_post0 2360. 3044.
 8 pre0_mod073_post0 2436. 3055.
 9 pre0_mod178_post0 2401. 3060.
10 pre0_mod097_post0 2378. 3064.
# ℹ 215 more rows
…
